predictive-analytics-h2o.utf8
…
##  3 1) CLIENT INFORMATION: AGE, JOB, MARITAL STATUS, EDUCATION LEVEL             
##  4 2) CLIENT LOAN HISTORY: DEFAULT HISTORY, HOME LOAN, PERSONAL LOAN, CURRENT B
##  5 3) MARKETING HISTORY: CONTACT TYPE, DAY LAST CONTACT, MONTH LAST CONTACT, LA
##  6 4) SUBSCRIPTION HISTORY: ENROLLED IN TERM LOAN? (Y/N)                        
##  7 <NA>                                                                         
##  8 STEP 2: MERGE INFORMATION                                                    
##  9 1) PERFORM VLOOKUP                                                           
## 10 <NA>                                                                         
## 11 STEP 3: MARKETING ANALYSIS                                                   
## 12 1) DAILY RANGE: WHAT IS NORMAL HIT RATE?                                     
## 13 2) WHAT FEATURES CONTRIBUTE TO TERM LOAN ENROLLMENT?                         
## 14 - Job Analysis                                                               
## 
## $`DATA DESCRIPTION`
## # A tibble: 70 x 1
##    bank_info                                                                    
##    <chr>                                                                        
##  1 Citation Request:                                                            
##  2 This dataset is public available for research. The details are described in 
##  3 Please include this citation if you plan to use this database:               
##  4 <NA>                                                                         
##  5 [Moro et al., 2011] S. Moro, R. Laureano and P. Cortez. Using Data Mining fo
##  6 In P. Novais et al. (Eds.), Proceedings of the European Simulation and Model
##  7 <NA>                                                                         
##  8 Available at: [pdf] http://hdl.handle.net/1822/14838                         
##  9 [bib] http://www3.dsi.uminho.pt/pcortez/bib/2011-esm-1.txt                   
## 10 <NA>                                                                         
## #  with 60 more rows
## 
## $`Step 1 - Collect Information`
## # A tibble: 1 x 2
##    Step Description               
##   <dbl> <chr>                     
## 1     1 Collect Client Information
## 
## $CLIENT_INFO
## # A tibble: 45,211 x 5
##    ID      AGE JOB          MARITAL  EDUCATION
##    <chr> <dbl> <chr>        <chr>    <chr>    
##  1 2836     58 management   married  tertiary 
##  2 2837     44 technician   single   secondary
##  3 2838     33 entrepreneur married  secondary
##  4 2839     47 blue-collar  married  unknown  
##  5 2840     33 unknown      single   unknown  
##  6 2841     35 management   married  tertiary 
##  7 2842     28 management   single   tertiary 
##  8 2843     42 entrepreneur divorced tertiary 
##  9 2844     58 retired      married  primary  
## 10 2845     43 technician   single   secondary
## #  with 45,201 more rows
## 
## $LOAN_HISTORY
## # A tibble: 45,211 x 5
##    ID    DEFAULT BALANCE HOUSING LOAN 
##    <chr> <chr>     <dbl> <chr>   <chr>
##  1 2836  no         2143 yes     no   
##  2 2837  no           29 yes     no   
##  3 2838  no            2 yes     yes  
##  4 2839  no         1506 yes     no   
##  5 2840  no            1 no      no   
##  6 2841  no          231 yes     no   
##  7 2842  no          447 yes     yes  
##  8 2843  yes           2 yes     no   
##  9 2844  no          121 yes     no   
## 10 2845  no          593 yes     no   
## #  with 45,201 more rows
## 
## $`MARKETING HISTORY`
## # A tibble: 45,211 x 9
##    ID    CONTACT   DAY MONTH DURATION CAMPAIGN PDAYS PREVIOUS POUTCOME
##    <chr> <chr>   <dbl> <chr>    <dbl>    <dbl> <dbl>    <dbl> <chr>   
##  1 2836  unknown     5 may        261        1    -1        0 unknown 
##  2 2837  unknown     5 may        151        1    -1        0 unknown 
##  3 2838  unknown     5 may         76        1    -1        0 unknown 
##  4 2839  unknown     5 may         92        1    -1        0 unknown 
##  5 2840  unknown     5 may        198        1    -1        0 unknown 
##  6 2841  unknown     5 may        139        1    -1        0 unknown 
##  7 2842  unknown     5 may        217        1    -1        0 unknown 
##  8 2843  unknown     5 may        380        1    -1        0 unknown 
##  9 2844  unknown     5 may         50        1    -1        0 unknown 
## 10 2845  unknown     5 may         55        1    -1        0 unknown 
## #  with 45,201 more rows
## 
## $`SUBSCRIPTION HISTORY`
## # A tibble: 45,211 x 2
##    ID    TERM_DEPOSIT
##    <chr> <chr>       
##  1 2836  no          
##  2 2837  no          
##  3 2838  no          
##  4 2839  no          
##  5 2840  no          
##  6 2841  no          
##  7 2842  no          
##  8 2843  no          
##  9 2844  no          
## 10 2845  no          
## #  with 45,201 more rows
## 
## $`Step 2 - Merge Information`
## # A tibble: 1 x 2
##    Step Description       
##   <dbl> <chr>             
## 1     2 Perform Data Merge
## 
## $CLIENT_MERGE
## # A tibble: 10,006 x 20
##    `VLOOKUP MERGE  ...2  ...3  ...4  ...5  ...6  ...7  ...8  ...9  ...10 ...11
##    <chr>            <chr> <chr> <chr> <chr> <chr> <chr> <chr> <chr> <chr> <chr>
##  1 1. DIFFICULT TO <NA>  <NA>  <NA>  <NA>  <NA>  <NA>  <NA>  <NA>  <NA>  <NA> 
##  2 2. COMPUTATIONA <NA>  <NA>  <NA>  <NA>  <NA>  <NA>  <NA>  <NA>  <NA>  <NA> 
##  3 3. EVERY CELL C <NA>  <NA>  <NA>  <NA>  <NA>  <NA>  <NA>  <NA>  <NA>  <NA> 
##  4 <NA>             <NA>  <NA>  <NA>  <NA>  <NA>  <NA>  <NA>  <NA>  <NA>  <NA> 
##  5 <NA>             CLIE <NA>  <NA>  <NA>  LOAN <NA>  <NA>  <NA>  MARK <NA> 
##  6 <NA>             2.0   3.0   4.0   5.0   2.0   3.0   4.0   5.0   2.0   3.0  
##  7 ID               AGE   JOB   MARI EDUC DEFA BALA HOUS LOAN  CONT DAY  
##  8 2836             58    mana marr tert no    2143  yes   no    unkn 5    
##  9 2837             44    tech sing seco no    29    yes   no    unkn 5    
## 10 2838             33    entr marr seco no    2     yes   yes   unkn 5    
## #  with 9,996 more rows, and 9 more variables: ...12 <chr>, ...13 <chr>,
## #   ...14 <chr>, ...15 <chr>, ...16 <chr>, ...17 <chr>, ...18 <chr>,
## #   ...19 <chr>, ...20 <chr>
## 
## $`Step 3 - Marketing Analysis`
## # A tibble: 1 x 2
##    Step Description               
##   <dbl> <chr>                     
## 1     3 Perform Marketing Analysis
## 
## $`DAILY RANGE`
## # A tibble: 28 x 4
##    `HIT RATE` ...2  `DAILY SUMMARY`     ...4
##         <dbl> <lgl> <chr>              <dbl>
##  1     0.0386 NA    MEAN             0.0351 
##  2     0.0360 NA    MEDIAN           0.0362 
##  3     0.0551 NA    SD               0.0138 
##  4     0.0613 NA    LOWER CONF       0.00755
##  5     0.0427 NA    UPPER CONF       0.0627 
##  6     0.0391 NA    <NA>            NA      
##  7     0.0451 NA    <NA>            NA      
##  8     0.0166 NA    <NA>            NA      
##  9     0.0222 NA    <NA>            NA      
## 10     0.0179 NA    <NA>            NA      
## #  with 18 more rows
## 
## $`JOB ANALYSIS`
…
